__end_of_readMiBus 6F3 0 CODE 0
__S0 8008 0 ABS 0
__S1 7E 0 ABS 0
__Hintentry 1 0 CODE 0
__Lintentry 1 0 CODE 0
_main 74A 0 CODE 0
btemp 7E 0 ABS 0
start 1 0 CODE 0
readADC@value 72 0 COMMON 1
main@data 7B 0 COMMON 1
readMiBus@i 73 0 COMMON 1
reset_vec 0 0 CODE 0
_ADRES 9B 0 ABS 0
wtemp0 7E 0 ABS 0
__Hconfig 8008 0 CONFIG 0
__Lconfig 8007 0 CONFIG 0
main@i 7D 0 COMMON 1
main@j 7A 0 COMMON 1
__Hbigram 0 0 ABS 0
__Lbigram 0 0 ABS 0
__Hram 0 0 ABS 0
__Lram 0 0 ABS 0
__Hfunctab 0 0 CODE 0
__Lfunctab 0 0 CODE 0
_ADCON0 9D 0 ABS 0
_ADCON1 9E 0 ABS 0
__Hcommon 0 0 ABS 0
__Lcommon 0 0 ABS 0
__Heeprom_data 0 0 EEDATA 3
__Leeprom_data 0 0 EEDATA 3
writeMiBus@i 73 0 COMMON 1
__Habs1 0 0 ABS 0
__Labs1 0 0 ABS 0
__Hsfr0 0 0 ABS 0
__Lsfr0 0 0 ABS 0
__Hsfr1 0 0 ABS 0
__Lsfr1 0 0 ABS 0
__Hsfr2 0 0 ABS 0
__Lsfr2 0 0 ABS 0
__Hsfr3 0 0 ABS 0
__Lsfr3 0 0 ABS 0
__Hsfr4 0 0 ABS 0
__Lsfr4 0 0 ABS 0
__Hsfr5 0 0 ABS 0
__Lsfr5 0 0 ABS 0
__size_of_readMiBus 0 0 ABS 0
__Hsfr6 0 0 ABS 0
__Lsfr6 0 0 ABS 0
__Hsfr7 0 0 ABS 0
__Lsfr7 0 0 ABS 0
__Hsfr8 0 0 ABS 0
__Lsfr8 0 0 ABS 0
__Hsfr9 0 0 ABS 0
__Lsfr9 0 0 ABS 0
__size_of_initADC 0 0 ABS 0
__Hcode 0 0 ABS 0
__Lcode 0 0 ABS 0
main@value 7C 0 COMMON 1
__Hinit 1 0 CODE 0
__Linit 1 0 CODE 0
__end_of_main 7FE 0 CODE 0
_readMiBus 6B2 0 CODE 0
__Htext 0 0 ABS 0
__Ltext 0 0 ABS 0
_initMiBus 689 0 CODE 0
end_of_initialization 7FE 0 CODE 0
__size_of_writeMiBus 0 0 ABS 0
__Hsfr10 0 0 ABS 0
__Lsfr10 0 0 ABS 0
__Hsfr20 0 0 ABS 0
__Lsfr20 0 0 ABS 0
__Hsfr30 0 0 ABS 0
__Hsfr11 0 0 ABS 0
__Lsfr30 0 0 ABS 0
__Lsfr11 0 0 ABS 0
__Hsfr21 0 0 ABS 0
__Lsfr21 0 0 ABS 0
__Hsfr31 0 0 ABS 0
__Hsfr12 0 0 ABS 0
__Lsfr31 0 0 ABS 0
__Lsfr12 0 0 ABS 0
__Hsfr22 0 0 ABS 0
__Lsfr22 0 0 ABS 0
__Hsfr13 0 0 ABS 0
__Lsfr13 0 0 ABS 0
__Hsfr23 0 0 ABS 0
__Lsfr23 0 0 ABS 0
__Hsfr14 0 0 ABS 0
__Lsfr14 0 0 ABS 0
__Hsfr24 0 0 ABS 0
__Lsfr24 0 0 ABS 0
__Hsfr15 0 0 ABS 0
__Lsfr15 0 0 ABS 0
__Hsfr25 0 0 ABS 0
__Lsfr25 0 0 ABS 0
__Hsfr16 0 0 ABS 0
__Lsfr16 0 0 ABS 0
__Hsfr26 0 0 ABS 0
__Lsfr26 0 0 ABS 0
__Hsfr17 0 0 ABS 0
__Lsfr17 0 0 ABS 0
__Hsfr27 0 0 ABS 0
__Lsfr27 0 0 ABS 0
__Hsfr18 0 0 ABS 0
__Lsfr18 0 0 ABS 0
__Hsfr28 0 0 ABS 0
__Lsfr28 0 0 ABS 0
__Hsfr19 0 0 ABS 0
__Lsfr19 0 0 ABS 0
__Hsfr29 0 0 ABS 0
__Lsfr29 0 0 ABS 0
_TRISAbits 8C 0 ABS 0
_TRISCbits 8E 0 ABS 0
_PORTAbits C 0 ABS 0
_PORTCbits E 0 ABS 0
__Hstrings 0 0 ABS 0
__Lstrings 0 0 ABS 0
_readADC 69A 0 CODE 0
_initADC 67F 0 CODE 0
__end_of_writeMiBus 74A 0 CODE 0
__Hbank0 0 0 ABS 0
__Lbank0 0 0 ABS 0
__Hbank1 0 0 ABS 0
__Lbank1 0 0 ABS 0
__Hbank2 0 0 BANK2 1
__Lbank2 0 0 BANK2 1
__Hbank3 0 0 BANK3 1
__Lbank3 0 0 BANK3 1
___latbits 0 0 ABS 0
__Hbank4 0 0 BANK4 1
__Lbank4 0 0 BANK4 1
__Hbank5 0 0 BANK5 1
__Lbank5 0 0 BANK5 1
__Hpowerup 0 0 CODE 0
__Lpowerup 0 0 CODE 0
__Hbank6 0 0 BANK6 1
__Lbank6 0 0 BANK6 1
__Hbank7 0 0 BANK7 1
__Lbank7 0 0 BANK7 1
__Hbank8 0 0 BANK8 1
__Lbank8 0 0 BANK8 1
__Hbank9 0 0 BANK9 1
__Lbank9 0 0 BANK9 1
__ptext0 0 0 CODE 0
__ptext1 6F3 0 CODE 0
__ptext2 6B2 0 CODE 0
__ptext3 689 0 CODE 0
__ptext4 69A 0 CODE 0
__ptext5 67F 0 CODE 0
__Hclrtext 0 0 ABS 0
__Lclrtext 0 0 ABS 0
__end_of__initialization 7FE 0 CODE 0
__Hidloc 0 0 IDLOC 0
__Lidloc 0 0 IDLOC 0
__Hcinit 800 0 CODE 0
__Lcinit 7FE 0 CODE 0
__size_of_main 0 0 ABS 0
_writeMiBus 6F3 0 CODE 0
__size_of_readADC 0 0 ABS 0
__CFG_MCLRE$OFF 0 0 ABS 0
writeMiBus@data 72 0 COMMON 1
__Hbank10 0 0 BANK10 1
__Lbank10 0 0 BANK10 1
__Hbank20 0 0 BANK20 1
__Lbank20 0 0 BANK20 1
__Hbank30 0 0 BANK30 1
__Hbank11 0 0 BANK11 1
__Lbank30 0 0 BANK30 1
__Lbank11 0 0 BANK11 1
__Hbank21 0 0 BANK21 1
__Lbank21 0 0 BANK21 1
__Hbank31 0 0 BANK31 1
__Hbank12 0 0 BANK12 1
__Lbank31 0 0 BANK31 1
__Lbank12 0 0 BANK12 1
__Hbank22 0 0 BANK22 1
__Lbank22 0 0 BANK22 1
__Hbank13 0 0 BANK13 1
__Lbank13 0 0 BANK13 1
__Hbank23 0 0 BANK23 1
__Lbank23 0 0 BANK23 1
__Hbank14 0 0 BANK14 1
__Lbank14 0 0 BANK14 1
__Hbank24 0 0 BANK24 1
__Lbank24 0 0 BANK24 1
__Hbank15 0 0 BANK15 1
__Lbank15 0 0 BANK15 1
__Hbank25 0 0 BANK25 1
__Lbank25 0 0 BANK25 1
__Hbank16 0 0 BANK16 1
__Lbank16 0 0 BANK16 1
__Hbank26 0 0 BANK26 1
__Lbank26 0 0 BANK26 1
__Hbank17 0 0 BANK17 1
__Lbank17 0 0 BANK17 1
__Hbank27 0 0 BANK27 1
__Lbank27 0 0 BANK27 1
__Hbank18 0 0 BANK18 1
__Lbank18 0 0 BANK18 1
_ADCON0bits 9D 0 ABS 0
__Hbank28 0 0 BANK28 1
__Lbank28 0 0 BANK28 1
__end_of_initADC 689 0 CODE 0
__Hbank19 0 0 BANK19 1
__Lbank19 0 0 BANK19 1
__Hbank29 0 0 BANK29 1
__Lbank29 0 0 BANK29 1
_ANSELAbits 18C 0 ABS 0
_ANSELCbits 18E 0 ABS 0
_OSCCONbits 99 0 ABS 0
__Hend_init 2 0 CODE 0
__Lend_init 1 0 CODE 0
__Hreset_vec 1 0 CODE 0
__Lreset_vec 0 0 CODE 0
readMiBus@data 72 0 COMMON 1
__end_of_initMiBus 69A 0 CODE 0
intlevel0 0 0 CODE 0
__CFG_WDTE$OFF 0 0 ABS 0
intlevel1 0 0 CODE 0
intlevel2 0 0 CODE 0
__size_of_initMiBus 0 0 ABS 0
intlevel3 0 0 CODE 0
intlevel4 0 0 CODE 0
intlevel5 0 0 CODE 0
__HcstackCOMMON 0 0 ABS 0
__LcstackCOMMON 0 0 ABS 0
__pcstackCOMMON 70 0 COMMON 1
start_initialization 7FE 0 CODE 0
__end_of_readADC 6B2 0 CODE 0
__Hmaintext 0 0 ABS 0
__Lmaintext 0 0 ABS 0
__pmaintext 74A 0 CODE 0
__CFG_FOSC$INTOSC 0 0 ABS 0
__initialization 7FE 0 CODE 0
__CFG_CP$OFF 0 0 ABS 0
%segments
reset_vec 0 3 CODE 0 0
cinit FFC FFF CODE FFC 0
config 1000E 1000F CONFIG 1000E 0
cstackCOMMON 70 7D COMMON 70 1
maintext E94 FFB CODE E94 0
text1 DE6 E93 CODE DE6 0
text2 D64 DE5 CODE D64 0
text4 D34 D63 CODE D34 0
text3 D12 D33 CODE D12 0
text5 CFE D11 CODE CFE 0
%locals
dist/default/production/Pulse.X.production.obj
/tmp/cgt8BPZVr
960 7FE 0 CODE 0
961 7FF 0 CODE 0
main.c
35 74A 0 CODE 0
36 74D 0 CODE 0
39 751 0 CODE 0
42 752 0 CODE 0
45 753 0 CODE 0
48 755 0 CODE 0
49 756 0 CODE 0
50 757 0 CODE 0
51 758 0 CODE 0
58 759 0 CODE 0
60 75A 0 CODE 0
61 75E 0 CODE 0
63 765 0 CODE 0
65 76A 0 CODE 0
66 76C 0 CODE 0
63 775 0 CODE 0
68 77A 0 CODE 0
70 781 0 CODE 0
72 786 0 CODE 0
73 788 0 CODE 0
70 791 0 CODE 0
77 796 0 CODE 0
81 798 0 CODE 0
85 799 0 CODE 0
86 7A1 0 CODE 0
87 7A3 0 CODE 0
88 7A5 0 CODE 0
89 7A7 0 CODE 0
91 7AE 0 CODE 0
92 7B3 0 CODE 0
91 7BA 0 CODE 0
85 7BF 0 CODE 0
96 7C7 0 CODE 0
97 7CF 0 CODE 0
98 7D1 0 CODE 0
99 7D3 0 CODE 0
100 7D5 0 CODE 0
102 7DC 0 CODE 0
103 7E1 0 CODE 0
102 7E8 0 CODE 0
96 7ED 0 CODE 0
55 7F0 0 CODE 0
58 7F4 0 CODE 0
83 7F7 0 CODE 0
108 7FB 0 CODE 0
53 7FD 0 CODE 0
112 7FE 0 CODE 0
miBus.c
55 6F3 0 CODE 0
56 6F4 0 CODE 0
58 6F5 0 CODE 0
59 6FA 0 CODE 0
60 6FD 0 CODE 0
61 701 0 CODE 0
62 703 0 CODE 0
58 705 0 CODE 0
65 70D 0 CODE 0
66 712 0 CODE 0
67 715 0 CODE 0
68 719 0 CODE 0
69 72B 0 CODE 0
65 72D 0 CODE 0
72 735 0 CODE 0
73 73A 0 CODE 0
74 73D 0 CODE 0
75 741 0 CODE 0
76 743 0 CODE 0
72 745 0 CODE 0
78 74A 0 CODE 0
22 6B2 0 CODE 0
23 6B3 0 CODE 0
36 6B4 0 CODE 0
29 6B5 0 CODE 0
30 6B9 0 CODE 0
31 6BC 0 CODE 0
32 6BE 0 CODE 0
33 6C2 0 CODE 0
34 6C5 0 CODE 0
35 6C9 0 CODE 0
41 6CA 0 CODE 0
42 6CF 0 CODE 0
43 6D2 0 CODE 0
44 6D4 0 CODE 0
45 6D8 0 CODE 0
46 6DB 0 CODE 0
41 6E6 0 CODE 0
50 6EE 0 CODE 0
52 6F1 0 CODE 0
53 6F3 0 CODE 0
11 689 0 CODE 0
12 68B 0 CODE 0
13 68D 0 CODE 0
14 68F 0 CODE 0
15 691 0 CODE 0
16 693 0 CODE 0
17 695 0 CODE 0
18 697 0 CODE 0
19 699 0 CODE 0
adc.c
19 69A 0 CODE 0
21 69C 0 CODE 0
22 69E 0 CODE 0
23 69F 0 CODE 0
24 6A1 0 CODE 0
26 6A2 0 CODE 0
29 6A8 0 CODE 0
30 6B2 0 CODE 0
11 67F 0 CODE 0
12 681 0 CODE 0
14 683 0 CODE 0
15 686 0 CODE 0
16 688 0 CODE 0
